[gd_scene load_steps=3 format=2]

[ext_resource path="res://balloons/Balloon.tscn" type="PackedScene" id=1]
[ext_resource path="res://Game.gd" type="Script" id=2]

[node name="Game" type="Node"]
script = ExtResource( 2 )

[node name="Balloon" parent="." instance=ExtResource( 1 )]
position = Vector2( 92, 82 )
