[gd_scene load_steps=4 format=2]

[ext_resource path="res://balloons/BaseBalloon.png" type="Texture" id=1]
[ext_resource path="res://balloons/Balloon.gd" type="Script" id=2]
[ext_resource path="res://Controller.tscn" type="PackedScene" id=3]

[node name="Balloon" type="Area2D"]
gravity_vec = Vector2( 0, 0 )
script = ExtResource( 2 )

[node name="CollisionPolygon2D" type="CollisionPolygon2D" parent="."]
polygon = PoolVector2Array( 0, 0, 32, 0, 32, 64, 0, 64 )

[node name="Sprite" type="Sprite" parent="."]
texture = ExtResource( 1 )
centered = false

[node name="Controller" parent="." instance=ExtResource( 3 )]

[connection signal="change_behavior" from="Controller" to="." method="_on_Controller_change_behavior"]
[connection signal="move_towards" from="Controller" to="." method="_on_Controller_move_towards"]
